Person3

Person1
Person2
Person3
Person4
Person5
Person6
Person7
Person8

Person1
Person2
Person3
Person4

Person4

Person2
Person3

Person3

Person1

Person2

Person1

Person3

Person2

Person2
Person3

Person3

Person1
Person2
Person3

Person2
Person3

Person2
Person3
Person8

Person1
Person2
Person3

Person2
Person3

Person2

Person2
